"config"
{
	"preview_visible"		"1"
	"p_x"		"1084"
	"p_y"		"381"
	"p_sx"		"449"
	"p_sy"		"378"
	"draw_datatypes"		"1"
	"draw_shadows"		"1"
	"draw_all_limits"		"0"
	"compile_preview"		"1"
	"enable_nodeview_tooltips"		"1"
	"compile_always_full"		"0"
	"compile_auto_publish_to_materials"		"1"
	"precache_auto_reload"		"1"
	"warn_unsaved_changes"		"1"
	"cedit_x"		"95"
	"cedit_y"		"195"
	"cedit_sx"		"918"
	"cedit_sy"		"585"
}
