"VertexLitGeneric"
{
	$baseTexture	"models\HDTF\mitchell2/hair_long"
	$bumpmap	"models\HDTF\mitchell2/fake_normal"

	$basemapluminancephongmask 1
	//$translucent	1
	$alphatest	1
	$nocull		1

	$phong		1
	$phongtint	"[ 1 1 1 ]"
	$phongboost	.8
	$phongexponent	10
	$phongfresnelranges "[ 1 1 1 ]"
	$ambientocclusion 	0
}
