VertexlitGeneric
{
	$basetexture	"models\HDTF\mitchell2\kneepad"
	$bumpmap	"models\HDTF\mitchell2\kneepad_normal"

	$phong		1
	$phongtint	"[ 1 1 1 ]"
	$phongboost	4
	$phongexponent	5
	$phongfresnelranges "[.1 .1 2 ]"		
}
