VertexlitGeneric
{
	$basetexture	"models\HDTF\mitchell2\laces"
	$bumpmap	"models\HDTF\mitchell2\laces_normal"

	$phong		1
	$phongtint	"[ 1 1 1 ]"
	$phongboost	.1
	$phongexponent	5
	$phongfresnelranges "[.1 .1 .5 ]"		
}
